%YAML 1.1
%TAG !u! tag:unity3d.com,2011:
--- !u!78 &1
TagManager:
  serializedVersion: 2
  tags:
  - DebugText
  - planet
  - ship
  - mainCanvas
  - projectile
  - DEBUGOBJ
  - orbitter
  - uiPanel
  - uiText
  - uiSubPanel
  layers:
  - Default
  - TransparentFX
  - Ignore Raycast
  - 
  - Water
  - UI
  - 
  - 
  - Background
  - Projectiles
  - 
  - 
  - 
  - 
  - 
  - Ships A
  - Ships B
  - Ships C
  - 
  - 
  - 
  - 
  - 
  - 
  - 
  - 
  - 
  - 
  - 
  - 
  - 
  - 
  m_SortingLayers:
  - name: BackgroundStars
    uniqueID: 1520522119
    locked: 0
  - name: Planets
    uniqueID: 2412139365
    locked: 0
  - name: Stellar Objects
    uniqueID: 474126089
    locked: 0
  - name: Orbiters
    uniqueID: 3374631459
    locked: 0
  - name: ProjectilesUnder
    uniqueID: 2461897393
    locked: 0
  - name: Ships
    uniqueID: 4086788393
    locked: 0
  - name: ProjectilesOver
    uniqueID: 1453354967
    locked: 0
  - name: UI
    uniqueID: 39226023
    locked: 0
  - name: MenuUI
    uniqueID: 2860802533
    locked: 0
  - name: Default
    uniqueID: 0
    locked: 0
